simulation/qsim/Contadores.msim.vcd
$comment
	File created using the following command:
		vcd file Contadores.msim.vcd -direction
$end
$date
	Tue Nov 22 15:41:48 2016
$end
$version
	ModelSim Version 10.5b
$end
$timescale
	1ps
$end

$scope module count_2_vlg_vec_tst $end
$var reg 1 ! clk $end
$var reg 1 " reset $end
$var wire 1 # out [3] $end
$var wire 1 $ out [2] $end
$var wire 1 % out [1] $end
$var wire 1 & out [0] $end

$scope module i1 $end
$var wire 1 ' gnd $end
$var wire 1 ( vcc $end
$var wire 1 ) unknown $end
$var tri1 1 * devclrn $end
$var tri1 1 + devpor $end
$var tri1 1 , devoe $end
$var wire 1 - out[0]~output_o $end
$var wire 1 . out[1]~output_o $end
$var wire 1 / out[2]~output_o $end
$var wire 1 0 out[3]~output_o $end
$var wire 1 1 clk~input_o $end
$var wire 1 2 clk~inputclkctrl_outclk $end
$var wire 1 3 reset~input_o $end
$var wire 1 4 out[1]~8_cout $end
$var wire 1 5 out[1]~9_combout $end
$var wire 1 6 out[1]~10 $end
$var wire 1 7 out[2]~12_combout $end
$var wire 1 8 out[2]~reg0_q $end
$var wire 1 9 out[2]~13 $end
$var wire 1 : out[3]~14_combout $end
$var wire 1 ; out[3]~reg0_q $end
$var wire 1 < out~4_combout $end
$var wire 1 = out[0]~11_combout $end
$var wire 1 > out[1]~reg0_q $end
$var wire 1 ? out~3_combout $end
$var wire 1 @ up_down~0_combout $end
$var wire 1 A up_down~q $end
$var wire 1 B out[0]~5_combout $end
$var wire 1 C out[0]~6_combout $end
$var wire 1 D out[0]~reg0_q $end
$upscope $end
$upscope $end
$enddefinitions $end
#0
$dumpvars
0!
1"
x&
x%
x$
x#
0'
1(
x)
1*
1+
1,
x-
x.
x/
x0
01
x2
13
x4
x5
x6
x7
08
x9
x:
0;
x<
x=
0>
x?
x@
0A
xB
xC
0D
$end
#191
02
#537
0?
#836
04
#843
09
#950
0B
#969
1=
#981
16
#1002
1<
#1012
0C
#1367
05
#1374
0:
#1512
07
#1527
1@
#3705
00
0#
#3767
0/
0$
#3833
0-
0&
#4966
0.
0%
#5000
1!
#5685
11
#5900
12
#7640
1A
#8411
17
1B
#8427
15
#8590
1:
#10000
0"
0!
#10801
01
03
#10992
02
#12325
0=
#12336
0@
#15000
1!
#15685
11
#15900
12
#17640
0A
#18501
1=
#18520
07
#18545
0B
#18551
05
#18648
0:
#18939
1C
#20000
0!
#20801
01
#20992
02
#25000
1!
#25685
11
#25900
12
#27640
1D
#28235
0<
#28421
1B
#28516
14
#28775
0C
#29069
15
#30000
0!
#30801
01
#30992
02
#31449
1-
1&
#35000
1!
#35685
11
#35900
12
#37640
1>
0D
#38355
06
#38420
05
#38476
04
#38537
0B
#38546
16
#38931
1C
#39029
15
#40000
0!
#40801
01
#40992
02
#41473
0-
0&
#42455
1.
1%
#45000
1!
#45685
11
#45900
12
#47640
1D
#48421
1B
#48516
14
#48586
06
#48775
0C
#49047
05
#49139
17
#50000
0!
#50801
01
#50992
02
#51449
1-
1&
#55000
1!
#55685
11
#55900
12
#57640
18
0>
0D
#58405
07
#58476
04
#58524
19
#58537
0B
#58596
16
#58666
09
#58931
1C
#59149
17
#60000
0!
#60801
01
#60992
02
#61401
1/
1$
#61473
0-
0&
#62606
0.
0%
#65000
1!
#65685
11
#65900
12
#67640
1D
#68421
1B
#68516
14
#68775
0C
#69069
15
#70000
0!
#70801
01
#70992
02
#71449
1-
1&
#75000
1!
#75685
11
#75900
12
#77640
1>
0D
#78355
06
#78420
05
#78425
19
#78476
04
#78537
0B
#78546
16
#78616
09
#78931
1C
#79029
15
#80000
0!
#80801
01
#80992
02
#81473
0-
0&
#82455
1.
1%
#85000
1!
#85685
11
#85900
12
#87640
1D
#88421
1B
#88516
14
#88586
06
#88656
19
#88775
0C
#89047
05
#89117
07
#89209
1:
#90000
0!
#90801
01
#90992
02
#91449
1-
1&
#95000
1!
#95685
11
#95900
12
#97640
08
1;
0>
0D
#98474
09
#98476
04
#98512
17
#98537
0B
#98596
16
#98931
1C
#99127
07
#100000
0!
#100801
01
#100992
02
#101335
10
1#
#101407
0/
0$
#101473
0-
0&
#102606
0.
0%
#105000
1!
#105685
11
#105900
12
#107640
1D
#108421
1B
#108516
14
#108775
0C
#109069
15
#110000
0!
#110801
01
#110992
02
#111449
1-
1&
#115000
1!
#115685
11
#115900
12
#117640
1>
0D
#118355
06
#118420
05
#118476
04
#118537
0B
#118546
16
#118931
1C
#119029
15
#120000
0!
#120801
01
#120992
02
#121473
0-
0&
#122455
1.
1%
#125000
1!
#125685
11
#125900
12
#127640
1D
#128421
1B
#128516
14
#128586
06
#128775
0C
#129047
05
#129139
17
#130000
0!
#130801
01
#130992
02
#131449
1-
1&
#135000
1!
#135685
11
#135900
12
#137640
18
0>
0D
#138405
07
#138476
04
#138524
19
#138537
0B
#138596
16
#138666
09
#138931
1C
#139149
17
#140000
0!
#140801
01
#140992
02
#141401
1/
1$
#141473
0-
0&
#142606
0.
0%
#145000
1!
#145685
11
#145900
12
#147640
1D
#148421
1B
#148516
14
#148775
0C
#149069
15
#150000
0!
#150801
01
#150992
02
#151449
1-
1&
#155000
1!
#155685
11
#155900
12
#157640
1>
0D
#158355
06
#158420
05
#158425
19
#158476
04
#158537
0B
#158546
16
#158616
09
#158931
1C
#159029
15
#160000
0!
#160801
01
#160992
02
#161473
0-
0&
#162455
1.
1%
#165000
1!
#165685
11
#165900
12
#167640
1D
#168236
1?
#168421
1B
#168516
14
#168586
06
#168620
0B
#168623
0=
#168656
19
#169047
05
#169103
1@
#169117
07
#169187
0:
#170000
0!
#170801
01
#170992
02
#171449
1-
1&
#175000
1!
#175685
11
#175900
12
#177640
1A
#178387
1=
#178411
17
1B
#178427
15
#178590
1:
#178765
0C
#180000
0!
#180801
01
#180992
02
#185000
1!
#185685
11
#185900
12
#187640
0D
#188338
0?
#188476
04
#188537
0B
#188931
1C
#189007
05
#190000
0!
#190801
01
#190992
02
#191473
0-
0&
#195000
1!
#195685
11
#195900
12
#197640
0>
1D
#198421
1B
#198515
15
#198516
14
#198775
0C
#199047
05
#200000
0!
#200801
01
#200992
02
#201449
1-
1&
#202606
0.
0%
#205000
1!
#205685
11
#205900
12
#207640
0D
#208476
04
#208537
0B
#208546
16
#208931
1C
#209029
15
#209077
07
#210000
0!
#210801
01
#210992
02
#211473
0-
0&
#215000
1!
#215685
11
#215900
12
#217640
08
1>
1D
#218355
06
#218420
05
#218421
1B
#218516
14
#218775
0C
#219069
15
#220000
0!
#220801
01
#220992
02
#221407
0/
0$
#221449
1-
1&
#222455
1.
1%
#225000
1!
#225685
11
#225900
12
#227640
0D
#228476
04
#228537
0B
#228931
1C
#229007
05
#230000
0!
#230801
01
#230992
02
#231473
0-
0&
#235000
1!
#235685
11
#235900
12
#237640
0>
1D
#238421
1B
#238515
15
#238516
14
#238775
0C
#239047
05
#240000
0!
#240801
01
#240992
02
#241449
1-
1&
#242606
0.
0%
#245000
1!
#245685
11
#245900
12
#247640
0D
#248476
04
#248537
0B
#248546
16
#248616
09
#248931
1C
#249029
15
#249099
17
#249147
0:
#250000
0!
#250801
01
#250992
02
#251473
0-
0&
#255000
1!
#255685
11
#255900
12
#257640
18
0;
1>
1D
#258355
06
#258420
05
#258421
1B
#258516
14
#258524
19
#258775
0C
#259069
15
#260000
0!
#260801
01
#260992
02
#261345
00
0#
#261401
1/
1$
#261449
1-
1&
#262455
1.
1%
#265000
1!
#265685
11
#265900
12
#267640
0D
#268476
04
#268537
0B
#268931
1C
#269007
05
#270000
0!
#270801
01
#270992
02
#271473
0-
0&
#275000
1!
#275685
11
#275900
12
#277640
0>
1D
#278421
1B
#278515
15
#278516
14
#278775
0C
#279047
05
#280000
0!
#280801
01
#280992
02
#281449
1-
1&
#282606
0.
0%
#285000
1!
#285685
11
#285900
12
#287640
0D
#288476
04
#288537
0B
#288546
16
#288931
1C
#289029
15
#289077
07
#290000
0!
#290801
01
#290992
02
#291473
0-
0&
#295000
1!
#295685
11
#295900
12
#297640
08
1>
1D
#298355
06
#298420
05
#298421
1B
#298516
14
#298775
0C
#299069
15
#300000
0!
#300801
01
#300992
02
#301407
0/
0$
#301449
1-
1&
#302455
1.
1%
#305000
1!
#305685
11
#305900
12
#307640
0D
#308476
04
#308537
0B
#308931
1C
#309007
05
#310000
0!
#310801
01
#310992
02
#311473
0-
0&
#315000
1!
#315685
11
#315900
12
#317640
0>
1D
#318421
1B
#318515
15
#318516
14
#318775
0C
#319047
05
#320000
0!
#320801
01
#320992
02
#321449
1-
1&
#322606
0.
0%
#325000
1!
#325685
11
#325900
12
#327640
0D
#328341
1<
#328476
04
#328537
0B
#328546
16
#328616
09
#328870
0=
#328871
1B
#328882
0@
#328931
1C
#329029
15
#329099
17
#329169
1:
#329225
0C
#330000
0!
#330801
01
#330992
02
#331473
0-
0&
#335000
1!
#335685
11
#335900
12
#337640
0A
#338501
1=
#338520
07
#338545
0B
#338551
05
#338648
0:
#338939
1C
#340000
0!
#340801
01
#340992
02
#345000
1!
#345685
11
#345900
12
#347640
1D
#348235
0<
#348421
1B
#348516
14
#348775
0C
#349069
15
#350000
0!
#350801
01
#350992
02
#351449
1-
1&
#355000
1!
#355685
11
#355900
12
#357640
1>
0D
#358355
06
#358420
05
#358476
04
#358537
0B
#358546
16
#358931
1C
#359029
15
#360000
0!
#360801
01
#360992
02
#361473
0-
0&
#362455
1.
1%
#365000
1!
#365685
11
#365900
12
#367640
1D
#368421
1B
#368516
14
#368586
06
#368775
0C
#369047
05
#369139
17
#370000
0!
#370801
01
#370992
02
#371449
1-
1&
#375000
1!
#375685
11
#375900
12
#377640
18
0>
0D
#378405
07
#378476
04
#378524
19
#378537
0B
#378596
16
#378666
09
#378931
1C
#379149
17
#380000
0!
#380801
01
#380992
02
#381401
1/
1$
#381473
0-
0&
#382606
0.
0%
#385000
1!
#385685
11
#385900
12
#387640
1D
#388421
1B
#388516
14
#388775
0C
#389069
15
#390000
0!
#390801
01
#390992
02
#391449
1-
1&
#395000
1!
#395685
11
#395900
12
#397640
1>
0D
#398355
06
#398420
05
#398425
19
#398476
04
#398537
0B
#398546
16
#398616
09
#398931
1C
#399029
15
#400000
0!
#400801
01
#400992
02
#401473
0-
0&
#402455
1.
1%
#405000
1!
#405685
11
#405900
12
#407640
1D
#408421
1B
#408516
14
#408586
06
#408656
19
#408775
0C
#409047
05
#409117
07
#409209
1:
#410000
0!
#410801
01
#410992
02
#411449
1-
1&
#415000
1!
#415685
11
#415900
12
#417640
08
1;
0>
0D
#418474
09
#418476
04
#418512
17
#418537
0B
#418596
16
#418931
1C
#419127
07
#420000
0!
#420801
01
#420992
02
#421335
10
1#
#421407
0/
0$
#421473
0-
0&
#422606
0.
0%
#425000
1!
#425685
11
#425900
12
#427640
1D
#428421
1B
#428516
14
#428775
0C
#429069
15
#430000
0!
#430801
01
#430992
02
#431449
1-
1&
#435000
1!
#435685
11
#435900
12
#437640
1>
0D
#438355
06
#438420
05
#438476
04
#438537
0B
#438546
16
#438931
1C
#439029
15
#440000
0!
#440801
01
#440992
02
#441473
0-
0&
#442455
1.
1%
#445000
1!
#445685
11
#445900
12
#447640
1D
#448421
1B
#448516
14
#448586
06
#448775
0C
#449047
05
#449139
17
#450000
0!
#450801
01
#450992
02
#451449
1-
1&
#455000
1!
#455685
11
#455900
12
#457640
18
0>
0D
#458405
07
#458476
04
#458524
19
#458537
0B
#458596
16
#458666
09
#458931
1C
#459149
17
#460000
0!
#460801
01
#460992
02
#461401
1/
1$
#461473
0-
0&
#462606
0.
0%
#465000
1!
#465685
11
#465900
12
#467640
1D
#468421
1B
#468516
14
#468775
0C
#469069
15
#470000
0!
#470801
01
#470992
02
#471449
1-
1&
#475000
1!
#475685
11
#475900
12
#477640
1>
0D
#478355
06
#478420
05
#478425
19
#478476
04
#478537
0B
#478546
16
#478616
09
#478931
1C
#479029
15
#480000
0!
#480801
01
#480992
02
#481473
0-
0&
#482455
1.
1%
#485000
1!
#485685
11
#485900
12
#487640
1D
#488236
1?
#488421
1B
#488516
14
#488586
06
#488620
0B
#488623
0=
#488656
19
#489047
05
#489103
1@
#489117
07
#489187
0:
#490000
0!
#490801
01
#490992
02
#491449
1-
1&
#495000
1!
#495685
11
#495900
12
#497640
1A
#498387
1=
#498411
17
1B
#498427
15
#498590
1:
#498765
0C
#500000
0!
#500801
01
#500992
02
#505000
1!
#505685
11
#505900
12
#507640
0D
#508338
0?
#508476
04
#508537
0B
#508931
1C
#509007
05
#510000
0!
#510801
01
#510992
02
#511473
0-
0&
#515000
1!
#515685
11
#515900
12
#517640
0>
1D
#518421
1B
#518515
15
#518516
14
#518775
0C
#519047
05
#520000
0!
#520801
01
#520992
02
#521449
1-
1&
#522606
0.
0%
#525000
1!
#525685
11
#525900
12
#527640
0D
#528476
04
#528537
0B
#528546
16
#528931
1C
#529029
15
#529077
07
#530000
0!
#530801
01
#530992
02
#531473
0-
0&
#535000
1!
#535685
11
#535900
12
#537640
08
1>
1D
#538355
06
#538420
05
#538421
1B
#538516
14
#538775
0C
#539069
15
#540000
0!
#540801
01
#540992
02
#541407
0/
0$
#541449
1-
1&
#542455
1.
1%
#545000
1!
#545685
11
#545900
12
#547640
0D
#548476
04
#548537
0B
#548931
1C
#549007
05
#550000
0!
#550801
01
#550992
02
#551473
0-
0&
#555000
1!
#555685
11
#555900
12
#557640
0>
1D
#558421
1B
#558515
15
#558516
14
#558775
0C
#559047
05
#560000
0!
#560801
01
#560992
02
#561449
1-
1&
#562606
0.
0%
#565000
1!
#565685
11
#565900
12
#567640
0D
#568476
04
#568537
0B
#568546
16
#568616
09
#568931
1C
#569029
15
#569099
17
#569147
0:
#570000
0!
#570801
01
#570992
02
#571473
0-
0&
#575000
1!
#575685
11
#575900
12
#577640
18
0;
1>
1D
#578355
06
#578420
05
#578421
1B
#578516
14
#578524
19
#578775
0C
#579069
15
#580000
0!
#580801
01
#580992
02
#581345
00
0#
#581401
1/
1$
#581449
1-
1&
#582455
1.
1%
#585000
1!
#585685
11
#585900
12
#587640
0D
#588476
04
#588537
0B
#588931
1C
#589007
05
#590000
0!
#590801
01
#590992
02
#591473
0-
0&
#595000
1!
#595685
11
#595900
12
#597640
0>
1D
#598421
1B
#598515
15
#598516
14
#598775
0C
#599047
05
#600000
0!
#600801
01
#600992
02
#601449
1-
1&
#602606
0.
0%
#605000
1!
#605685
11
#605900
12
#607640
0D
#608476
04
#608537
0B
#608546
16
#608931
1C
#609029
15
#609077
07
#610000
0!
#610801
01
#610992
02
#611473
0-
0&
#615000
1!
#615685
11
#615900
12
#617640
08
1>
1D
#618355
06
#618420
05
#618421
1B
#618516
14
#618775
0C
#619069
15
#620000
0!
#620801
01
#620992
02
#621407
0/
0$
#621449
1-
1&
#622455
1.
1%
#625000
1!
#625685
11
#625900
12
#627640
0D
#628476
04
#628537
0B
#628931
1C
#629007
05
#630000
0!
#630801
01
#630992
02
#631473
0-
0&
#635000
1!
#635685
11
#635900
12
#637640
0>
1D
#638421
1B
#638515
15
#638516
14
#638775
0C
#639047
05
#640000
0!
#640801
01
#640992
02
#641449
1-
1&
#642606
0.
0%
#645000
1!
#645685
11
#645900
12
#647640
0D
#648341
1<
#648476
04
#648537
0B
#648546
16
#648616
09
#648870
0=
#648871
1B
#648882
0@
#648931
1C
#649029
15
#649099
17
#649169
1:
#649225
0C
#650000
0!
#650801
01
#650992
02
#651473
0-
0&
#655000
1!
#655685
11
#655900
12
#657640
0A
#658501
1=
#658520
07
#658545
0B
#658551
05
#658648
0:
#658939
1C
#660000
0!
#660801
01
#660992
02
#665000
1!
#665685
11
#665900
12
#667640
1D
#668235
0<
#668421
1B
#668516
14
#668775
0C
#669069
15
#670000
0!
#670801
01
#670992
02
#671449
1-
1&
#675000
1!
#675685
11
#675900
12
#677640
1>
0D
#678355
06
#678420
05
#678476
04
#678537
0B
#678546
16
#678931
1C
#679029
15
#680000
0!
#680801
01
#680992
02
#681473
0-
0&
#682455
1.
1%
#685000
1!
#685685
11
#685900
12
#687640
1D
#688421
1B
#688516
14
#688586
06
#688775
0C
#689047
05
#689139
17
#690000
0!
#690801
01
#690992
02
#691449
1-
1&
#695000
1!
#695685
11
#695900
12
#697640
18
0>
0D
#698405
07
#698476
04
#698524
19
#698537
0B
#698596
16
#698666
09
#698931
1C
#699149
17
#700000
0!
#700801
01
#700992
02
#701401
1/
1$
#701473
0-
0&
#702606
0.
0%
#705000
1!
#705685
11
#705900
12
#707640
1D
#708421
1B
#708516
14
#708775
0C
#709069
15
#710000
0!
#710801
01
#710992
02
#711449
1-
1&
#715000
1!
#715685
11
#715900
12
#717640
1>
0D
#718355
06
#718420
05
#718425
19
#718476
04
#718537
0B
#718546
16
#718616
09
#718931
1C
#719029
15
#720000
0!
#720801
01
#720992
02
#721473
0-
0&
#722455
1.
1%
#725000
1!
#725685
11
#725900
12
#727640
1D
#728421
1B
#728516
14
#728586
06
#728656
19
#728775
0C
#729047
05
#729117
07
#729209
1:
#730000
0!
#730801
01
#730992
02
#731449
1-
1&
#735000
1!
#735685
11
#735900
12
#737640
08
1;
0>
0D
#738474
09
#738476
04
#738512
17
#738537
0B
#738596
16
#738931
1C
#739127
07
#740000
0!
#740801
01
#740992
02
#741335
10
1#
#741407
0/
0$
#741473
0-
0&
#742606
0.
0%
#745000
1!
#745685
11
#745900
12
#747640
1D
#748421
1B
#748516
14
#748775
0C
#749069
15
#750000
0!
#750801
01
#750992
02
#751449
1-
1&
#755000
1!
#755685
11
#755900
12
#757640
1>
0D
#758355
06
#758420
05
#758476
04
#758537
0B
#758546
16
#758931
1C
#759029
15
#760000
0!
#760801
01
#760992
02
#761473
0-
0&
#762455
1.
1%
#765000
1!
#765685
11
#765900
12
#767640
1D
#768421
1B
#768516
14
#768586
06
#768775
0C
#769047
05
#769139
17
#770000
0!
#770801
01
#770992
02
#771449
1-
1&
#775000
1!
#775685
11
#775900
12
#777640
18
0>
0D
#778405
07
#778476
04
#778524
19
#778537
0B
#778596
16
#778666
09
#778931
1C
#779149
17
#780000
0!
#780801
01
#780992
02
#781401
1/
1$
#781473
0-
0&
#782606
0.
0%
#785000
1!
#785685
11
#785900
12
#787640
1D
#788421
1B
#788516
14
#788775
0C
#789069
15
#790000
0!
#790801
01
#790992
02
#791449
1-
1&
#795000
1!
#795685
11
#795900
12
#797640
1>
0D
#798355
06
#798420
05
#798425
19
#798476
04
#798537
0B
#798546
16
#798616
09
#798931
1C
#799029
15
#800000
0!
#800801
01
#800992
02
#801473
0-
0&
#802455
1.
1%
#805000
1!
#805685
11
#805900
12
#807640
1D
#808236
1?
#808421
1B
#808516
14
#808586
06
#808620
0B
#808623
0=
#808656
19
#809047
05
#809103
1@
#809117
07
#809187
0:
#810000
0!
#810801
01
#810992
02
#811449
1-
1&
#815000
1!
#815685
11
#815900
12
#817640
1A
#818387
1=
#818411
17
1B
#818427
15
#818590
1:
#818765
0C
#820000
0!
#820801
01
#820992
02
#825000
1!
#825685
11
#825900
12
#827640
0D
#828338
0?
#828476
04
#828537
0B
#828931
1C
#829007
05
#830000
0!
#830801
01
#830992
02
#831473
0-
0&
#835000
1!
#835685
11
#835900
12
#837640
0>
1D
#838421
1B
#838515
15
#838516
14
#838775
0C
#839047
05
#840000
0!
#840801
01
#840992
02
#841449
1-
1&
#842606
0.
0%
#845000
1!
#845685
11
#845900
12
#847640
0D
#848476
04
#848537
0B
#848546
16
#848931
1C
#849029
15
#849077
07
#850000
0!
#850801
01
#850992
02
#851473
0-
0&
#855000
1!
#855685
11
#855900
12
#857640
08
1>
1D
#858355
06
#858420
05
#858421
1B
#858516
14
#858775
0C
#859069
15
#860000
0!
#860801
01
#860992
02
#861407
0/
0$
#861449
1-
1&
#862455
1.
1%
#865000
1!
#865685
11
#865900
12
#867640
0D
#868476
04
#868537
0B
#868931
1C
#869007
05
#870000
0!
#870801
01
#870992
02
#871473
0-
0&
#875000
1!
#875685
11
#875900
12
#877640
0>
1D
#878421
1B
#878515
15
#878516
14
#878775
0C
#879047
05
#880000
0!
#880801
01
#880992
02
#881449
1-
1&
#882606
0.
0%
#885000
1!
#885685
11
#885900
12
#887640
0D
#888476
04
#888537
0B
#888546
16
#888616
09
#888931
1C
#889029
15
#889099
17
#889147
0:
#890000
0!
#890801
01
#890992
02
#891473
0-
0&
#895000
1!
#895685
11
#895900
12
#897640
18
0;
1>
1D
#898355
06
#898420
05
#898421
1B
#898516
14
#898524
19
#898775
0C
#899069
15
#900000
0!
#900801
01
#900992
02
#901345
00
0#
#901401
1/
1$
#901449
1-
1&
#902455
1.
1%
#905000
1!
#905685
11
#905900
12
#907640
0D
#908476
04
#908537
0B
#908931
1C
#909007
05
#910000
0!
#910801
01
#910992
02
#911473
0-
0&
#915000
1!
#915685
11
#915900
12
#917640
0>
1D
#918421
1B
#918515
15
#918516
14
#918775
0C
#919047
05
#920000
0!
#920801
01
#920992
02
#921449
1-
1&
#922606
0.
0%
#925000
1!
#925685
11
#925900
12
#927640
0D
#928476
04
#928537
0B
#928546
16
#928931
1C
#929029
15
#929077
07
#930000
0!
#930801
01
#930992
02
#931473
0-
0&
#935000
1!
#935685
11
#935900
12
#937640
08
1>
1D
#938355
06
#938420
05
#938421
1B
#938516
14
#938775
0C
#939069
15
#940000
0!
#940801
01
#940992
02
#941407
0/
0$
#941449
1-
1&
#942455
1.
1%
#945000
1!
#945685
11
#945900
12
#947640
0D
#948476
04
#948537
0B
#948931
1C
#949007
05
#950000
0!
#950801
01
#950992
02
#951473
0-
0&
#955000
1!
#955685
11
#955900
12
#957640
0>
1D
#958421
1B
#958515
15
#958516
14
#958775
0C
#959047
05
#960000
0!
#960801
01
#960992
02
#961449
1-
1&
#962606
0.
0%
#965000
1!
#965685
11
#965900
12
#967640
0D
#968341
1<
#968476
04
#968537
0B
#968546
16
#968616
09
#968870
0=
#968871
1B
#968882
0@
#968931
1C
#969029
15
#969099
17
#969169
1:
#969225
0C
#970000
0!
#970801
01
#970992
02
#971473
0-
0&
#975000
1!
#975685
11
#975900
12
#977640
0A
#978501
1=
#978520
07
#978545
0B
#978551
05
#978648
0:
#978939
1C
#980000
0!
#980801
01
#980992
02
#985000
1!
#985685
11
#985900
12
#987640
1D
#988235
0<
#988421
1B
#988516
14
#988775
0C
#989069
15
#990000
0!
#990801
01
#990992
02
#991449
1-
1&
#995000
1!
#995685
11
#995900
12
#997640
1>
0D
#998355
06
#998420
05
#998476
04
#998537
0B
#998546
16
#998931
1C
#999029
15
