simulation/qsim/Contadores.msim.vcd
$comment
	File created using the following command:
		vcd file Contadores.msim.vcd -direction
$end
$date
	Mon Nov 21 00:47:05 2016
$end
$version
	ModelSim Version 10.5b
$end
$timescale
	1ps
$end

$scope module count_2_vlg_vec_tst $end
$var reg 1 ! clk $end
$var reg 1 " reset $end
$var wire 1 # out [3] $end
$var wire 1 $ out [2] $end
$var wire 1 % out [1] $end
$var wire 1 & out [0] $end

$scope module i1 $end
$var wire 1 ' gnd $end
$var wire 1 ( vcc $end
$var wire 1 ) unknown $end
$var tri1 1 * devclrn $end
$var tri1 1 + devpor $end
$var tri1 1 , devoe $end
$var wire 1 - out[0]~output_o $end
$var wire 1 . out[1]~output_o $end
$var wire 1 / out[2]~output_o $end
$var wire 1 0 out[3]~output_o $end
$var wire 1 1 clk~input_o $end
$var wire 1 2 clk~inputclkctrl_outclk $end
$var wire 1 3 reset~input_o $end
$var wire 1 4 out[1]~8_cout $end
$var wire 1 5 out[1]~9_combout $end
$var wire 1 6 out[1]~10 $end
$var wire 1 7 out[2]~12_combout $end
$var wire 1 8 out[2]~reg0_q $end
$var wire 1 9 out[2]~13 $end
$var wire 1 : out[3]~14_combout $end
$var wire 1 ; out[3]~reg0_q $end
$var wire 1 < out~4_combout $end
$var wire 1 = out[0]~11_combout $end
$var wire 1 > out[1]~reg0_q $end
$var wire 1 ? out~3_combout $end
$var wire 1 @ up_down~0_combout $end
$var wire 1 A up_down~q $end
$var wire 1 B out[0]~5_combout $end
$var wire 1 C out[0]~6_combout $end
$var wire 1 D out[0]~reg0_q $end
$upscope $end
$upscope $end
$enddefinitions $end
#0
$dumpvars
0!
1"
0&
0%
0$
0#
0'
1(
x)
1*
1+
1,
0-
0.
0/
00
01
02
13
04
05
16
07
08
09
0:
0;
1<
1=
0>
0?
1@
0A
0B
0C
0D
$end
#5000
1!
11
12
1A
1B
1:
17
15
#10000
0"
0!
03
01
02
0=
0@
#15000
1!
11
12
0A
0B
1=
0:
07
05
1C
#20000
0!
01
02
#25000
1!
11
12
1D
1-
1B
0<
14
1&
0C
15
#30000
0!
01
02
#35000
1!
11
12
0D
1>
1.
0-
0B
04
06
0&
1%
05
16
1C
15
17
07
#40000
0!
01
02
#45000
1!
11
12
1D
1-
1B
14
1&
06
0C
05
17
#50000
0!
01
02
#55000
1!
11
12
0D
0>
18
1/
0.
0-
0B
04
16
19
0&
0%
1$
15
07
09
1C
05
17
1:
0:
#60000
0!
01
02
#65000
1!
11
12
1D
1-
1B
14
1&
0C
15
#70000
0!
01
02
#75000
1!
11
12
0D
1>
1.
0-
0B
04
06
0&
1%
05
16
19
1C
15
07
09
17
1:
0:
#80000
0!
01
02
#85000
1!
11
12
1D
1-
1B
14
1&
06
0C
05
19
07
1:
#90000
0!
01
02
#95000
1!
11
12
0D
0>
1;
08
0/
10
0.
0-
0B
04
16
09
0&
0%
1#
0$
15
0:
17
1C
05
07
1:
#100000
0!
01
02
#105000
1!
11
12
1D
1-
1B
14
1&
0C
15
#110000
0!
01
02
#115000
1!
11
12
0D
1>
1.
0-
0B
04
06
0&
1%
05
16
1C
15
17
07
#120000
0!
01
02
#125000
1!
11
12
1D
1-
1B
14
1&
06
0C
05
17
#130000
0!
01
02
#135000
1!
11
12
0D
0>
18
1/
0.
0-
0B
04
16
19
0&
0%
1$
15
07
09
1C
05
17
0:
1:
#140000
0!
01
02
#145000
1!
11
12
1D
1-
1B
14
1&
0C
15
#150000
0!
01
02
#155000
1!
11
12
0D
1>
1.
0-
0B
04
06
0&
1%
05
16
19
1C
15
07
09
17
0:
1:
#160000
0!
01
02
#165000
1!
11
12
1D
1-
1B
1?
14
1&
0B
0=
06
0C
1@
05
19
1C
07
0:
#170000
0!
01
02
#175000
1!
11
12
1A
1B
1=
1:
17
15
0C
#180000
0!
01
02
#185000
1!
11
12
0D
0-
0B
0?
04
0&
1C
05
#190000
0!
01
02
#195000
1!
11
12
1D
0>
0.
1-
1B
14
16
1&
0%
15
06
0C
05
07
17
#200000
0!
01
02
#205000
1!
11
12
0D
0-
0B
04
0&
16
1C
15
07
#210000
0!
01
02
#215000
1!
11
12
1D
1>
08
0/
1.
1-
1B
14
06
09
1&
1%
0$
05
17
19
0C
15
07
0:
1:
#220000
0!
01
02
#225000
1!
11
12
0D
0-
0B
04
0&
1C
05
#230000
0!
01
02
#235000
1!
11
12
1D
0>
0.
1-
1B
14
16
1&
0%
15
06
09
0C
05
17
19
07
0:
1:
#240000
0!
01
02
#245000
1!
11
12
0D
0-
0B
04
0&
16
1C
15
09
17
0:
#250000
0!
01
02
#255000
1!
11
12
1D
1>
0;
18
1/
00
1.
1-
1B
14
06
19
1&
1%
0#
1$
05
1:
07
0C
15
17
0:
#260000
0!
01
02
#265000
1!
11
12
0D
0-
0B
04
0&
1C
05
#270000
0!
01
02
#275000
1!
11
12
1D
0>
0.
1-
1B
14
16
1&
0%
15
06
0C
05
07
17
#280000
0!
01
02
#285000
1!
11
12
0D
0-
0B
04
0&
16
1C
15
07
#290000
0!
01
02
#295000
1!
11
12
1D
1>
08
0/
1.
1-
1B
14
06
09
1&
1%
0$
05
17
19
0C
15
07
1:
0:
#300000
0!
01
02
#305000
1!
11
12
0D
0-
0B
04
0&
1C
05
#310000
0!
01
02
#315000
1!
11
12
1D
0>
0.
1-
1B
14
16
1&
0%
15
06
09
0C
05
17
19
07
1:
0:
#320000
0!
01
02
#325000
1!
11
12
0D
0-
0B
1<
04
0&
1B
0=
16
1C
0@
15
09
0C
17
1:
#330000
0!
01
02
#335000
1!
11
12
0A
0B
1=
0:
07
05
1C
#340000
0!
01
02
#345000
1!
11
12
1D
1-
1B
0<
14
1&
0C
15
#350000
0!
01
02
#355000
1!
11
12
0D
1>
1.
0-
0B
04
06
0&
1%
05
16
1C
15
17
07
#360000
0!
01
02
#365000
1!
11
12
1D
1-
1B
14
1&
06
0C
05
17
#370000
0!
01
02
#375000
1!
11
12
0D
0>
18
1/
0.
0-
0B
04
16
19
0&
0%
1$
15
07
09
1C
05
17
1:
0:
#380000
0!
01
02
#385000
1!
11
12
1D
1-
1B
14
1&
0C
15
#390000
0!
01
02
#395000
1!
11
12
0D
1>
1.
0-
0B
04
06
0&
1%
05
16
19
1C
15
07
09
17
1:
0:
#400000
0!
01
02
#405000
1!
11
12
1D
1-
1B
14
1&
06
0C
05
19
07
1:
#410000
0!
01
02
#415000
1!
11
12
0D
0>
1;
08
0/
10
0.
0-
0B
04
16
09
0&
0%
1#
0$
15
0:
17
1C
05
07
1:
#420000
0!
01
02
#425000
1!
11
12
1D
1-
1B
14
1&
0C
15
#430000
0!
01
02
#435000
1!
11
12
0D
1>
1.
0-
0B
04
06
0&
1%
05
16
1C
15
17
07
#440000
0!
01
02
#445000
1!
11
12
1D
1-
1B
14
1&
06
0C
05
17
#450000
0!
01
02
#455000
1!
11
12
0D
0>
18
1/
0.
0-
0B
04
16
19
0&
0%
1$
15
07
09
1C
05
17
0:
1:
#460000
0!
01
02
#465000
1!
11
12
1D
1-
1B
14
1&
0C
15
#470000
0!
01
02
#475000
1!
11
12
0D
1>
1.
0-
0B
04
06
0&
1%
05
16
19
1C
15
07
09
17
0:
1:
#480000
0!
01
02
#485000
1!
11
12
1D
1-
1B
1?
14
1&
0B
0=
06
0C
1@
05
19
1C
07
0:
#490000
0!
01
02
#495000
1!
11
12
1A
1B
1=
1:
17
15
0C
#500000
0!
01
02
#505000
1!
11
12
0D
0-
0B
0?
04
0&
1C
05
#510000
0!
01
02
#515000
1!
11
12
1D
0>
0.
1-
1B
14
16
1&
0%
15
06
0C
05
07
17
#520000
0!
01
02
#525000
1!
11
12
0D
0-
0B
04
0&
16
1C
15
07
#530000
0!
01
02
#535000
1!
11
12
1D
1>
08
0/
1.
1-
1B
14
06
09
1&
1%
0$
05
17
19
0C
15
07
0:
1:
#540000
0!
01
02
#545000
1!
11
12
0D
0-
0B
04
0&
1C
05
#550000
0!
01
02
#555000
1!
11
12
1D
0>
0.
1-
1B
14
16
1&
0%
15
06
09
0C
05
17
19
07
0:
1:
#560000
0!
01
02
#565000
1!
11
12
0D
0-
0B
04
0&
16
1C
15
09
17
0:
#570000
0!
01
02
#575000
1!
11
12
1D
1>
0;
18
1/
00
1.
1-
1B
14
06
19
1&
1%
0#
1$
05
1:
07
0C
15
17
0:
#580000
0!
01
02
#585000
1!
11
12
0D
0-
0B
04
0&
1C
05
#590000
0!
01
02
#595000
1!
11
12
1D
0>
0.
1-
1B
14
16
1&
0%
15
06
0C
05
07
17
#600000
0!
01
02
#605000
1!
11
12
0D
0-
0B
04
0&
16
1C
15
07
#610000
0!
01
02
#615000
1!
11
12
1D
1>
08
0/
1.
1-
1B
14
06
09
1&
1%
0$
05
17
19
0C
15
07
1:
0:
#620000
0!
01
02
#625000
1!
11
12
0D
0-
0B
04
0&
1C
05
#630000
0!
01
02
#635000
1!
11
12
1D
0>
0.
1-
1B
14
16
1&
0%
15
06
09
0C
05
17
19
07
1:
0:
#640000
0!
01
02
#645000
1!
11
12
0D
0-
0B
1<
04
0&
1B
0=
16
1C
0@
15
09
0C
17
1:
#650000
0!
01
02
#655000
1!
11
12
0A
0B
1=
0:
07
05
1C
#660000
0!
01
02
#665000
1!
11
12
1D
1-
1B
0<
14
1&
0C
15
#670000
0!
01
02
#675000
1!
11
12
0D
1>
1.
0-
0B
04
06
0&
1%
05
16
1C
15
17
07
#680000
0!
01
02
#685000
1!
11
12
1D
1-
1B
14
1&
06
0C
05
17
#690000
0!
01
02
#695000
1!
11
12
0D
0>
18
1/
0.
0-
0B
04
16
19
0&
0%
1$
15
07
09
1C
05
17
1:
0:
#700000
0!
01
02
#705000
1!
11
12
1D
1-
1B
14
1&
0C
15
#710000
0!
01
02
#715000
1!
11
12
0D
1>
1.
0-
0B
04
06
0&
1%
05
16
19
1C
15
07
09
17
1:
0:
#720000
0!
01
02
#725000
1!
11
12
1D
1-
1B
14
1&
06
0C
05
19
07
1:
#730000
0!
01
02
#735000
1!
11
12
0D
0>
1;
08
0/
10
0.
0-
0B
04
16
09
0&
0%
1#
0$
15
0:
17
1C
05
07
1:
#740000
0!
01
02
#745000
1!
11
12
1D
1-
1B
14
1&
0C
15
#750000
0!
01
02
#755000
1!
11
12
0D
1>
1.
0-
0B
04
06
0&
1%
05
16
1C
15
17
07
#760000
0!
01
02
#765000
1!
11
12
1D
1-
1B
14
1&
06
0C
05
17
#770000
0!
01
02
#775000
1!
11
12
0D
0>
18
1/
0.
0-
0B
04
16
19
0&
0%
1$
15
07
09
1C
05
17
0:
1:
#780000
0!
01
02
#785000
1!
11
12
1D
1-
1B
14
1&
0C
15
#790000
0!
01
02
#795000
1!
11
12
0D
1>
1.
0-
0B
04
06
0&
1%
05
16
19
1C
15
07
09
17
0:
1:
#800000
0!
01
02
#805000
1!
11
12
1D
1-
1B
1?
14
1&
0B
0=
06
0C
1@
05
19
1C
07
0:
#810000
0!
01
02
#815000
1!
11
12
1A
1B
1=
1:
17
15
0C
#820000
0!
01
02
#825000
1!
11
12
0D
0-
0B
0?
04
0&
1C
05
#830000
0!
01
02
#835000
1!
11
12
1D
0>
0.
1-
1B
14
16
1&
0%
15
06
0C
05
07
17
#840000
0!
01
02
#845000
1!
11
12
0D
0-
0B
04
0&
16
1C
15
07
#850000
0!
01
02
#855000
1!
11
12
1D
1>
08
0/
1.
1-
1B
14
06
09
1&
1%
0$
05
17
19
0C
15
07
0:
1:
#860000
0!
01
02
#865000
1!
11
12
0D
0-
0B
04
0&
1C
05
#870000
0!
01
02
#875000
1!
11
12
1D
0>
0.
1-
1B
14
16
1&
0%
15
06
09
0C
05
17
19
07
0:
1:
#880000
0!
01
02
#885000
1!
11
12
0D
0-
0B
04
0&
16
1C
15
09
17
0:
#890000
0!
01
02
#895000
1!
11
12
1D
1>
0;
18
1/
00
1.
1-
1B
14
06
19
1&
1%
0#
1$
05
1:
07
0C
15
17
0:
#900000
0!
01
02
#905000
1!
11
12
0D
0-
0B
04
0&
1C
05
#910000
0!
01
02
#915000
1!
11
12
1D
0>
0.
1-
1B
14
16
1&
0%
15
06
0C
05
07
17
#920000
0!
01
02
#925000
1!
11
12
0D
0-
0B
04
0&
16
1C
15
07
#930000
0!
01
02
#935000
1!
11
12
1D
1>
08
0/
1.
1-
1B
14
06
09
1&
1%
0$
05
17
19
0C
15
07
1:
0:
#940000
0!
01
02
#945000
1!
11
12
0D
0-
0B
04
0&
1C
05
#950000
0!
01
02
#955000
1!
11
12
1D
0>
0.
1-
1B
14
16
1&
0%
15
06
09
0C
05
17
19
07
1:
0:
#960000
0!
01
02
#965000
1!
11
12
0D
0-
0B
1<
04
0&
1B
0=
16
1C
0@
15
09
0C
17
1:
#970000
0!
01
02
#975000
1!
11
12
0A
0B
1=
0:
07
05
1C
#980000
0!
01
02
#985000
1!
11
12
1D
1-
1B
0<
14
1&
0C
15
#990000
0!
01
02
#995000
1!
11
12
0D
1>
1.
0-
0B
04
06
0&
1%
05
16
1C
15
17
07
